// Jest Snapshot v1, https://goo.gl/fbAQLP

exports[`Dashboard #render renders correctly 1`] = `
<ul
  class="nav nav-tabs"
>
  <li
    class="nav-item"
  >
    <router-link-stub
      aria-current="page"
      class="nav-link active"
      to="/"
    >
      
      Dashboard
    
    </router-link-stub>
  </li>
   
  <li
    class="nav-item"
  >
    <router-link-stub
      aria-current="page"
      class="nav-link active"
      to="/advertiser"
    >
      
      Advertisers
    
    </router-link-stub>
  </li>
</ul>
`;
